<?xml version="1.0" encoding="UTF-8"?>
<svg width="13px" height="8px" viewBox="0 0 13 8" version="1.1" xmlns="http://www.w3.org/2000/svg" xmlns:xlink="http://www.w3.org/1999/xlink">
    <!-- Generator: Sketch 47.1 (45422) - http://www.bohemiancoding.com/sketch -->
    <title>arrow-icon-secondary</title>
    <desc>Created with Sketch.</desc>
    <defs></defs>
    <g id="Page-1" stroke="none" stroke-width="1" fill="none" fill-rule="evenodd">
        <g id="arrow-icon-secondary" transform="translate(6.500000, 4.000000) rotate(90.000000) translate(-6.500000, -4.000000) translate(4.000000, -1.000000)" stroke-width="2" stroke="#000000">
            <polyline points="0 0 5 5 0 10"></polyline>
        </g>
    </g>
</svg>