<?xml version="1.0" encoding="UTF-8"?>
<svg width="20px" height="16px" viewBox="0 0 20 16" version="1.1" xmlns="http://www.w3.org/2000/svg" xmlns:xlink="http://www.w3.org/1999/xlink">
    <!-- Generator: Sketch 46.1 (44463) - http://www.bohemiancoding.com/sketch -->
    <title>Page 1</title>
    <desc>Created with Sketch.</desc>
    <defs></defs>
    <g id="Mockups-" stroke="none" stroke-width="1" fill="none" fill-rule="evenodd">
        <g id="04---Help-Center---V2---Search-results@2x" transform="translate(-395.000000, -1433.000000)" fill="#0D7AC7">
            <g id="Group-5-Copy" transform="translate(0.000000, 1130.000000)">
                <g id="Group-40" transform="translate(281.000000, 76.000000)">
                    <g id="Group-17" transform="translate(0.000000, 105.000000)">
                        <g id="Group-12-Copy" transform="translate(0.000000, 101.000000)">
                            <g id="Group-14" transform="translate(114.000000, 17.000000)">
                                <path d="M19,4 C18.64583,4.76923323 17.7734425,5.08974277 17,5 C16.0286425,4.423072 15.0260475,4 14,4 C12.7083275,4 11.744795,4.39743262 11,5 C10.130205,5.98718277 9.7265625,6.93589169 10,8 C9.7265625,8.34615631 9.765625,8.65384369 10,9 C8.177075,8.88461538 6.60808,8.47436308 5,8 C3.6653575,6.98717538 2.42188,5.98718523 1,5 C1.015623,5.34615631 0.8203125,6.02563692 1,7 C0.8203125,8.20513477 1.4322855,9.32050954 3,10 C2.005205,10.1153846 1.393232,9.94871877 1,10 L1,10 C0.8203125,10.6410314 1.126299,11.4871754 2,12 C2.3502635,12.9743631 3.138015,13.4487163 4,14 C3.7369775,13.7307692 3.3723975,13.7692308 3,14 C2.747395,13.7692308 2.48698,13.7435889 2,14 C2.5130225,14.5128246 3.0012975,15.1858954 4,16 C4.381515,16.2371815 5.1692675,16.5 6,17 C4.570305,17.6538518 2.8776125,18.2307692 1,18 C0.664061,18.2307692 0.33854325,18.2179488 0,18 C1.927093,19.397442 4.023425,20 6,20 C8.1119875,20 9.7786375,19.6538496 11,19 C12.7994875,18.2692273 14.0299425,17.3653908 15,16 C15.930995,15.1346092 16.666665,13.9038523 17,13 C17.708335,11.2115323 17.96875,9.85898092 18,8 C17.96875,8.320512 17.96875,8.15384615 18,8 C18.776045,7.41025231 19.4531225,6.70513231 20,6 C19.2447875,6.21794954 18.463545,6.43589662 18,7 C18.54167,5.99999754 19.1406225,5.256416 19,4 L19,4 Z" id="Page-1"></path>
                            </g>
                        </g>
                    </g>
                </g>
            </g>
        </g>
    </g>
</svg>